Trends within All-NBA Team Data
…
regular_seasons

## # A tibble: 5,932 x 22
##       GP   MIN   PTS   FGM   FGA `FG%` `3PM` `3PA` `3P%`   FTM   FTA `FT%`
##    <dbl> <dbl> <dbl> <dbl> <dbl> <dbl> <dbl> <dbl> <dbl> <dbl> <dbl> <dbl>
##  1    81  40.2  32.5  11.9  22.2  53.8   0.3   1.2  27.6   8.3   9.8  85  
##  2    80  39.1  29.1  10.1  19.5  51.9   0.1   0.2  31.3   8.8  11.5  76.6
##  3    82  38.9  27.5  10.5  20.9  50.1   2     4.1  47.8   4.6   5.6  81.6
##  4    78  39.3  27.2  10.6  21.4  49.6   0.3   1.3  26     5.6   7    79.9
##  5    82  37.7  26.5  10.1  19.9  50.9   0.3   1.2  23     6     6.7  89.2
##  6    82  36.5  26.5  11.3  22.9  49.1   0     0.1  25     4     4.6  85.8
##  7    80  37.5  26.2  10.2  22    46.4   0.4   1.3  27.6   5.5   6.6  84.4
##  8    79  39.1  25.8   8.9  15.3  57.9   0.4   2.1  21.6   7.6  10.1  75.3
##  9    81  37.1  25.7   9.6  20.3  47.1   0.3   1.1  32.6   6.3   7.4  85.1
## 10    82  36.9  24.8   9.6  19    50.8   0     0.1   0     5.5   8    69.6
## # ... with 5,922 more rows, and 10 more variables: OREB <dbl>, DREB <dbl>,
## #   REB <dbl>, AST <dbl>, STL <dbl>, BLK <dbl>, TOV <dbl>, EFF <dbl>,
## #   season <chr>, player <chr>
…
all_nba_team_players_data <- all_nba_team_first_data %>%
  full_join(all_nba_team_second_data, by= c("season", "player", "is_all_nba")) %>%
  full_join(all_nba_team_third_data, by =c("season", "player", "is_all_nba")) %>%
  arrange(season)

all_nba_team_players_data <- all_nba_team_players_data %>%
  mutate(player = str_extract(player, "^(\\w|'|-)* [A-Za-z]*")) %>%
  mutate(season = str_c(str_extract(season, "^\\d*"),str_extract(str_trim(season), "\\d*$"), sep = "-"))

all_nba_team_players_data

## # A tibble: 450 x 3
##    season  player          is_all_nba
##    <chr>   <chr>           <chr>     
##  1 1988-89 Karl Malone     Yes       
##  2 1988-89 Charles Barkley Yes       
##  3 1988-89 Akeem Olajuwon  Yes       
##  4 1988-89 Michael Jordan  Yes       
##  5 1988-89 Magic Johnson   Yes       
##  6 1988-89 Tom Chambers    Yes       
##  7 1988-89 Chris Mullin    Yes       
##  8 1988-89 Patrick Ewing   Yes       
##  9 1988-89 John Stockton   Yes       
## 10 1988-89 Kevin Johnson   Yes       
## # ... with 440 more rows

Putting the data together

regular_seasons <- regular_seasons %>%
  left_join(all_nba_team_players_data, by = c("player", "season")) %>%
  mutate(is_all_nba = if_else(is.na(is_all_nba), "No", "Yes"))

regular_seasons

## # A tibble: 5,932 x 23
##       GP   MIN   PTS   FGM   FGA `FG%` `3PM` `3PA` `3P%`   FTM   FTA `FT%`
##    <dbl> <dbl> <dbl> <dbl> <dbl> <dbl> <dbl> <dbl> <dbl> <dbl> <dbl> <dbl>
##  1    81  40.2  32.5  11.9  22.2  53.8   0.3   1.2  27.6   8.3   9.8  85  
##  2    80  39.1  29.1  10.1  19.5  51.9   0.1   0.2  31.3   8.8  11.5  76.6
##  3    82  38.9  27.5  10.5  20.9  50.1   2     4.1  47.8   4.6   5.6  81.6
##  4    78  39.3  27.2  10.6  21.4  49.6   0.3   1.3  26     5.6   7    79.9
##  5    82  37.7  26.5  10.1  19.9  50.9   0.3   1.2  23     6     6.7  89.2
##  6    82  36.5  26.5  11.3  22.9  49.1   0     0.1  25     4     4.6  85.8
##  7    80  37.5  26.2  10.2  22    46.4   0.4   1.3  27.6   5.5   6.6  84.4
##  8    79  39.1  25.8   8.9  15.3  57.9   0.4   2.1  21.6   7.6  10.1  75.3
##  9    81  37.1  25.7   9.6  20.3  47.1   0.3   1.1  32.6   6.3   7.4  85.1
## 10    82  36.9  24.8   9.6  19    50.8   0     0.1   0     5.5   8    69.6
## # ... with 5,922 more rows, and 11 more variables: OREB <dbl>, DREB <dbl>,
## #   REB <dbl>, AST <dbl>, STL <dbl>, BLK <dbl>, TOV <dbl>, EFF <dbl>,
## #   season <chr>, player <chr>, is_all_nba <chr>
…
